 ,usrdfn_id,int_constant,float_constant,string_constant,boolean_constant,if_stmt,els_stmt,elsif_stmt,int_type,float_type,boolean_type,string_type,lef_brac,right_brac,lef_paren,right_paren,dbl_quot,assign_opr,grtrthn_opr,grtrthn_eql_opr,lssthn_opr,lsstn_eq_opr,equ_opr,not_eq_opr,output_stmt,input_stmt,loop_stmt,add_opr,subt_opr,mul_opr,mdls_opr,div_opr,intdiv_opr,exp_opr,log_not_opr,log_and_opr,log_or_opr,noise_word,$, 
start,stmts, , , , ,stmts, , ,stmts,stmts,stmts,stmts, , , , , , , , , , , , ,stmts,stmts,stmts, , , , , , , , , , ,stmts,SYNCH, 
input_list,SYNCH, , , , ,SYNCH, , ,SYNCH,SYNCH,SYNCH,SYNCH, ,SYNCH, , , , , , , , , , ,SYNCH,input_stmt lef_paren usrdfn_id right_paren,SYNCH, , , , , , , , , , ,SYNCH,SYNCH, 
output_list,SYNCH, , , , ,SYNCH, , ,SYNCH,SYNCH,SYNCH,SYNCH, ,SYNCH, , , , , , , , , , ,output_stmt lef_paren output_args right_paren,SYNCH,SYNCH, , , , , , , , , , ,SYNCH,SYNCH, 
output_args,usrdfn_id,constant output_id,constant output_id, ,constant output_id, , , , , , , , , , ,SYNCH,constant output_id, , , , , , , , , , , , , , , , , , , , , , , 
output_id,usrdfn_id, , , , , , , , , , , , , , ,e, , , , , , , , , , , , , , , , , , , , , , , , 
constant,SYNCH,int_constant,float_constant, ,boolean_constant,SYNCH, , ,SYNCH,SYNCH,SYNCH, , ,SYNCH, ,SYNCH,dbl_quot string_constant dbl_quot, , , , , , , ,SYNCH,SYNCH,SYNCH,SYNCH,SYNCH,SYNCH,SYNCH,SYNCH,SYNCH,SYNCH,SYNCH,SYNCH,SYNCH,SYNCH,SYNCH, 
declaration_stmt,SYNCH, , , , ,SYNCH, , ,data_type usrdfn_id dec_args,data_type usrdfn_id dec_args,data_type usrdfn_id dec_args,data_type usrdfn_id dec_args, ,SYNCH, , , , , , , , , , ,SYNCH,SYNCH,SYNCH, , , , , , , , , , ,SYNCH,SYNCH, 
dec_args,e, , , , ,e, , ,e,e,e,e, ,e, , , ,assign_args, , , , , , ,e,e,e, , , , , , , , , , ,e,e, 
data_type,SYNCH, , , , , , , ,int_type,float_type,boolean_type,string_type, , , , , , , , , , , , , , , , , , , , , , , , , , , , 
assignment_stmt,usrdfn_id assign_args, , , , ,SYNCH, , ,SYNCH,SYNCH,SYNCH,SYNCH, ,SYNCH, , , , , , , , , , ,SYNCH,SYNCH,SYNCH, , , , , , , , , , ,SYNCH,SYNCH, 
assign_args,SYNCH, , , , ,SYNCH, , ,SYNCH,SYNCH,SYNCH,SYNCH, ,SYNCH, , , ,assign_opr assign_list, , , , , , ,SYNCH,SYNCH,SYNCH, , , , , , , , , , ,SYNCH,SYNCH, 
assign_list,usrdfn_id arith_exp,constant arith_exp,constant arith_exp, ,constant arith_exp,SYNCH, , ,SYNCH,SYNCH,SYNCH,SYNCH, ,SYNCH, , ,constant arith_exp, , , , , , , ,SYNCH,SYNCH,SYNCH, , , , , , , , , , ,SYNCH,SYNCH, 
arith_exp,e, , , , ,e, , ,e,e,e,e, ,e, , , , , , , , , , ,e,e,e,arith_opr assign_list,arith_opr assign_list,arith_opr assign_list,arith_opr assign_list,arith_opr assign_list,arith_opr assign_list,arith_opr assign_list, , , ,e,e, 
arith_opr,SYNCH, , , , ,SYNCH, , ,SYNCH,SYNCH,SYNCH,SYNCH, ,SYNCH, , , , , , , , , , ,SYNCH,SYNCH,SYNCH,add_opr,subt_opr,mul_opr,mdls_opr,div_opr,intdiv_opr,exp_opr, , , ,SYNCH,SYNCH, 
if_cond,SYNCH, , , , ,if_stmt cond_args conditional_stmt, , ,SYNCH,SYNCH,SYNCH,SYNCH, ,SYNCH, , , , , , , , , , ,SYNCH,SYNCH,SYNCH, , , , , , , , , , ,SYNCH,SYNCH, 
conditional_stmt,e, , , , ,e,els_stmt lef_brac stmts right_brac,elsif_stmt cond_args conditional_stmt,e,e,e,e,cond_args conditional_stmt,e,cond_args, , , , , , , , , ,e,e,e, , , , , , , , , , ,e,e, 
cond_args,SYNCH, , , , ,SYNCH,SYNCH,SYNCH,SYNCH,SYNCH,SYNCH,SYNCH,lef_brac stmts right_brac,SYNCH,lef_paren cond right_paren lef_brac stmts right_brac, , , , , , , , , ,SYNCH,SYNCH,SYNCH, , , , , , , , , , ,SYNCH,SYNCH, 
cond,relational, , , , , , , , , , , , , , ,SYNCH, , , , , , , , , , , , , , , , , , , , , , , , 
relational,usrdfn_id relational_opr rel_list, , , , , , , , , , , , , , ,SYNCH, , , , , , , , , , , , , , , , , , , , , , , , 
logical, , , , , , , , , , , , , , , ,SYNCH, , , , , , , , , , , , , , , , , , ,log_not_opr relational, , , , , 
rel_list,usrdfn_id log_list,constant log_list,constant log_list, ,constant log_list, , , , , , , , , , ,SYNCH,constant log_list, , , , , , , , , , , , , , , , , , , , , , , 
log_list, , , , , , , , , , , , , , , ,e, , , , , , , , , , , , , , , , , , ,logical_opr relational,logical_opr relational,logical_opr relational, , , 
relational_opr,SYNCH,SYNCH,SYNCH, ,SYNCH, , , , , , , , , , , ,SYNCH, ,grtrthn_opr,grtrthn_eql_opr,lssthn_opr,lsstn_eq_opr,equ_opr,not_eq_opr, , , , , , , , , , , , , , , , 
logical_opr,SYNCH, , , , , , , , , , , , , , , , , , , , , , , , , , , , , , , , , ,log_not_opr,log_and_opr,log_or_opr, , , 
whl_stmt,SYNCH, , , , ,SYNCH, , ,SYNCH,SYNCH,SYNCH,SYNCH, ,SYNCH, , , , , , , , , , ,SYNCH,SYNCH,loop_stmt loop_args, , , , , , , , , , ,SYNCH,SYNCH, 
loop_args,SYNCH, , , , ,SYNCH, , ,SYNCH,SYNCH,SYNCH,SYNCH, ,SYNCH,lef_paren cond right_paren lef_brac stmts right_brac, , , , , , , , , ,SYNCH,SYNCH,SYNCH, , , , , , , , , , ,SYNCH,SYNCH, 
stmts,assignment_stmt stmts, , , , ,if_cond stmts, , ,declaration_stmt stmts,declaration_stmt stmts,declaration_stmt stmts,declaration_stmt stmts, ,e, , , , , , , , , , ,output_list stmts,input_list stmts,whl_stmt stmts, , , , , , , , , , ,noise_word stmts,e, 
