 ,usrdfn_id,int_constant,float_constant,string_constant,boolean_constant,if_stmt,els_stmt,elsif_stmt,int_type,float_type,boolean_type,string_type,lef_brac,right_brac,lef_paren,right_paren,dbl_quot,assign_opr,grtrthn_opr,grtrthn_eql_opr,lssthn_opr,lsstn_eq_opr,equ_opr,not_eq_opr,output_stmt,input_stmt,loop_stmt,add_opr,subt_opr,mul_opr,mdls_opr,div_opr,intdiv_opr,exp_opr,log_not_opr,log_and_opr,log_or_opr,noise_word,$, 
start,noise_stmt declaration_stmt stmts 1, , , , ,noise_stmt declaration_stmt stmts 1, , ,noise_stmt declaration_stmt stmts 1,noise_stmt declaration_stmt stmts 1,noise_stmt declaration_stmt stmts 1,noise_stmt declaration_stmt stmts 1, , , , , , , , , , , , ,noise_stmt declaration_stmt stmts 1,noise_stmt declaration_stmt stmts 1,noise_stmt declaration_stmt stmts 1, , , , , , , , , , ,noise_stmt declaration_stmt stmts 1,e, 
noise_stmt,e 3, , , , ,e 3, , ,e 3,e 3,e 3, e 3, , , , , , , , , , , , ,e 3,e 3,e 3, , , , , , , , , , ,noise_word 2,e 3, 
input_list,SYNCH, , , , ,SYNCH, , , , , , , ,SYNCH, , , , , , , , , , ,SYNCH,input_stmt lef_paren usrdfn_id 4.1 right_paren 4,SYNCH, , , , , , , , , , , ,SYNCH, 
output_list,SYNCH, , , , ,SYNCH, , , , , , , ,SYNCH, , , , , , , , , , ,output_stmt lef_paren output_args right_paren 5,SYNCH,SYNCH, , , , , , , , , , , ,SYNCH, 
output_args,usrdfn_id 6 6.2,constant output_id 7,constant output_id 7, ,constant output_id 7, , , , , , , , , , ,SYNCH,constant output_id 7, , , , , , , , , , , , , , , , , , , , , , , 
output_id,usrdfn_id 8 8.2, , , , , , , , , , , , , , ,e 9, , , , , , , , , , , , , , , , , , , , , , , , 
constant,SYNCH,int_constant 10 10.2,float_constant 12 12.2, ,boolean_constant 13 13.2,SYNCH, , , , , , , ,SYNCH, ,SYNCH,dbl_quot 11 string_constant 11.3 dbl_quot 11.2, , , , , , , ,SYNCH,SYNCH,SYNCH,SYNCH,SYNCH,SYNCH,SYNCH,SYNCH,SYNCH,SYNCH, ,SYNCH,SYNCH, , , 
declaration_stmt,e 15, , , , ,e 15, , ,data_type 14 usrdfn_id 14.2 dec_args 14.3,data_type 14 usrdfn_id 14.2 dec_args 14.3,data_type 14 usrdfn_id 14.2 dec_args 14.3,data_type 14 usrdfn_id 14.2 dec_args 14.3, , , , , , , , , , , , ,e 15,e 15,e 15, , , , , , , , , , , ,e 15, 
dec_args,e 18, , , , ,e 18, , ,declaration_stmt 17,declaration_stmt 17,declaration_stmt 17,declaration_stmt 17, , , , , ,assign_args 16, , , , , , ,e 18,e 18,e 18, , , , , , , , , , , ,e 18, 
data_type,SYNCH, , , , , , , ,int_type 19 19.2,float_type 21 21.2,boolean_type 22 22.2,string_type 20 20.2, , , , , , , , , , , , , , , , , , , , , , , , , , , , 
assignment_stmt,usrdfn_id 23 assign_args 23.2, , , , ,SYNCH, , , , , , , ,SYNCH, , , , , , , , , , ,SYNCH,SYNCH,SYNCH, , , , , , , , , , , , , 
assign_args,SYNCH, , , , ,SYNCH, , , , , , , ,SYNCH, , , ,assign_opr assign_list 24, , , , , , ,SYNCH,SYNCH,SYNCH, , , , , , , , , , , , , 
assign_list,usrdfn_id 26 arith_exp 26.2,constant 25 arith_exp 25.2,constant 25 arith_exp 25.2, ,constant 25 arith_exp 25.2,SYNCH, , , , , , , ,SYNCH, , ,constant 25 arith_exp 25.2, , , , , , , ,SYNCH,SYNCH,SYNCH, , , , , , , , , , , , , 
arith_exp,e 29, , , , ,e 29, , ,dec_args 28,dec_args 28,dec_args 28,dec_args 28, ,SYNCH, , , ,dec_args 28, , , , , , ,e 29,e 29,e 29,arith_opr assign_list 27,arith_opr assign_list 27,arith_opr assign_list 27,arith_opr assign_list 27,arith_opr assign_list 27,arith_opr assign_list 27,arith_opr assign_list 27, , , , ,e 29, 
arith_opr,SYNCH,SYNCH,SYNCH, ,SYNCH, , , , , , , , , , , ,SYNCH, , , , , , , , , , ,add_opr 30,subt_opr 31,mul_opr 32,mdls_opr 34,div_opr 33,intdiv_opr 36,exp_opr 35, , , , , , 
if_cond,SYNCH, , , , ,if_stmt cond_args conditional_stmt 37, , , , , , , ,SYNCH, , , , , , , , , , ,SYNCH,SYNCH,SYNCH, , , , , , , , , , , , , 
conditional_stmt,SYNCH, , , , ,e,els_stmt lef_brac stmts right_brac 39,elsif_stmt cond_args conditional_stmt 38, , , , , ,e, ,e, , , , , , , , ,e,e,e, , , , , , , , , , , ,e, 
cond_args,SYNCH, , , , ,SYNCH,SYNCH,SYNCH, , , , , , ,lef_paren cond right_paren 41.1 lef_brac stmts right_brac 40, , , , , , , , , ,SYNCH,SYNCH,SYNCH, , , , , , , , , , , , , 
cond,relational 41, , , , , , , , , , , , ,SYNCH, , , , , , , , , , , , , , , , , , , , ,logical 42, , , , , 
relational,usrdfn_id 43 relational_opr rel_list 43.2, , , , , , , , , , , , ,SYNCH, , , , , , , , , , , , , , , , , , , , , , , , , , 
logical, , , , , , , , , , , , , ,SYNCH, , , , , , , , , , , , , , , , , , , , ,log_not_opr relational 44, , , , , 
rel_list,usrdfn_id 45 log_list 45.2,constant 46 log_list 46.2,constant 46 log_list 46.2, ,constant 46 log_list 46.2, , , , , , , , ,SYNCH, , ,constant 46 log_list 46.2, , , , , , , , , , , , , , , , , , , , , , , 
log_list, , , , , , , , , , , , , ,SYNCH, ,e 48, , , , , , , , , , , , , , , , , , ,logical_opr relational 47,logical_opr relational 47,logical_opr relational 47, , , 
relational_opr,SYNCH,SYNCH,SYNCH, ,SYNCH, , , , , , , , , , , ,SYNCH, ,grtrthn_opr 49,grtrthn_eql_opr 50,lssthn_opr 51,lsstn_eq_opr 52,equ_opr 53,not_eq_opr 54, , , , , , , , , , , , , , , , 
logical_opr,SYNCH, , , , , , , , , , , , , , , , , , , , , , , , , , , , , , , , , ,log_not_opr,log_and_opr 55,log_or_opr 56, , , 
whl_stmt,SYNCH, , , , ,SYNCH, , , , , , , ,SYNCH, , , , , , , , , , ,SYNCH,SYNCH,loop_stmt loop_args 57, , , , , , , , , , , , , 
loop_args,SYNCH, , , , ,SYNCH, , , , , , , ,SYNCH,lef_paren cond right_paren 64.1 lef_brac stmts right_brac 58, , , , , , , , , ,SYNCH,SYNCH,SYNCH, , , , , , , , , , , , , 
stmts,assignment_stmt stmts 63, , , , ,if_cond stmts 61, , , , , , , ,e 64, , , , , , , , , , ,output_list stmts 59,input_list stmts 60,whl_stmt stmts 62, , , , , , , , , , , ,e 64, 
